# Copyright (C) 2015-2021 Free Software Foundation, Inc.
#
# Copying and distribution of this file, with or without modification, are
# permitted in any medium without royalty provided the copyright notice and
# this notice are preserved.  This file is offered as-is, without any
# warranty.
5.3932774677668
4.7389534611694
4.6367278925857
4.9336122599431
4.5610196897253
4.4582019512818
4.4601551641468
5.4839550970881
5.5289562129159
